…
``` r
library(dplyr)
library(ggplot2)
```

``` r
spotify_songs <- read.csv("songs_normalize.csv")
tibble(spotify_songs)
```

    ## # A tibble: 2,000 × 18
    ##    artist  song  duration_ms explicit  year popularity danceability energy   key
    ##    <chr>   <chr>       <int> <chr>    <int>      <int>        <dbl>  <dbl> <int>
    ##  1 Britne… Oops…      211160 False     2000         77        0.751  0.834     1
    ##  2 blink-… All …      167066 False     1999         79        0.434  0.897     0
    ##  3 Faith … Brea…      250546 False     1999         66        0.529  0.496     7
    ##  4 Bon Jo… It's…      224493 False     2000         78        0.551  0.913     0
    ##  5 *NSYNC  Bye …      200560 False     2000         65        0.614  0.928     8
    ##  6 Sisqo   Thon…      253733 True      1999         69        0.706  0.888     2
    ##  7 Eminem  The …      284200 True      2000         86        0.949  0.661     5
    ##  8 Robbie… Rock…      258560 False     2000         68        0.708  0.772     7
    ##  9 Destin… Say …      271333 False     1999         75        0.713  0.678     5
    ## 10 Modjo   Lady…      307153 False     2001         77        0.72   0.808     6
    ## # ℹ 1,990 more rows
    ## # ℹ 9 more variables: loudness <dbl>, mode <int>, speechiness <dbl>,
    ## #   acousticness <dbl>, instrumentalness <dbl>, liveness <dbl>, valence <dbl>,
    ## #   tempo <dbl>, genre <chr>
…
